{
    "variables":{
        "packer_profile": "cloudbinary-packer",
        "application_name": "devops",
        "application_version": "1.0.0",
        "ami_aws_account_id": "266934144328",
        "region": "ap-south-1",
        "source_ami": "ami-05ba3a39a75be1ec4",
        "instance_type": "t2.micro"
    },
    "builders": [
    {
        "name": "{{user `application_name`}}",
        "type": "amazon-ebs",
        "ssh_username": "ubuntu",
        "force_deregister": "true",
        "force_delete_snapshot": "true",
        "associate_public_ip_address": "true",
        "region": "{{user `region`}}",
        "source_ami": "{{user `source_ami`}}",
        "instance_type": "{{user `instance_type`}}",
        "ami_name": "{{user `application_name`}}-{{user `application_version`}}",
        "iam_instance_profile": "{{user `packer_profile`}}",
        "tags": {
            "Name": "{{user `application_name`}}",
            "CreatedBy": "Packer"
        }
    }
    ],
    "provisioners": [
        {
            "type": "shell",
            "inline": [
                "sudo apt-get update",
                "sudo apt-get install git curl -y"
            ]
        },
        {
            "type": "shell",
            "inline": [
                "sudo apt-get update",
                "sudo apt-get install ansible -y"
            ]
        },
        {
            "type": "shell",
            "inline": [
                "sudo apt-get update",
                "sudo apt-get install apache2 -y"
            ]
        },
        {
            "type": "shell-local",
            "inline": [
                "touch /opt/demo.txt"
            ]
        }
    ]
}